{
  "name": "Python",
  "image": "mcr.microsoft.com/devcontainers/python:latest",
  "customizations": {
    "vscode": {
      "extensions": [
        "ms-python.python",
        "ms-python.isort",
        "ms-python.black-formatter"
      ],
    }
  },
  "runArgs": [
    "--userns=keep-id", // may not be needed for docker / rootful podman
  ],
  "containerUser": "vscode",
}
